{
  "Реклама": {
    "скидка": 150,
    "только": 132,
    "дёшево": 100,
    "дней": 80,
    "сегодня": 75,
    "даром": 50,
    "подарок": 45,
    "деньги": 40
  },
  "Новости": {
    "новость": 104,
    "сегодня": 92,
    "срочно": 83,
    "закон": 75,
    "президент": 50,
    "дума": 42,
    "налог": 23
  }
}